<?xml version="1.0" encoding="UTF-8"?>
<!-- Generator: Adobe Illustrator 25.1.0, SVG Export Plug-In . SVG Version: 6.00 Build 0)  -->
<svg version="1.1" id="Capa_1" xmlns="http://www.w3.org/2000/svg" xmlns:xlink="http://www.w3.org/1999/xlink" x="0px" y="0px" viewBox="0 0 200 200" style="enable-background:new 0 0 200 200;" xml:space="preserve">
<style type="text/css">
	.st0{fill:#4C9C2E;}
	.st1{fill:#FFFFFF;}
</style>
<g>
	<g>
		<path class="st0" d="M144.1,64.1L33.2,0.1l-1.9,3.3c-6.3,10.9-4.9,23,3.1,27.7l6.5,3.7c-1.7,4-2.5,8.2-2.2,12.1    c0.4,5.5,3,9.9,7,12.2l8.1,4.7c-4.2,9.9-2.4,20.1,4.8,24.3l53.7,31l9.3-16.1l13.1-22.7h0L144.1,64.1z M109.6,108.7L62.4,81.5    c-3.5-2-4.2-7.9-2-13.9l54.7,31.6L109.6,108.7z M118.9,92.6L58.1,57.5l0,0l-8.5-4.9c-2.5-1.4-3.1-4.5-3.2-6.2    c-0.2-2.4,0.3-5,1.2-7.6L124.4,83L118.9,92.6z M128.2,76.5l-3.2-1.8L47.8,30l-3.3-1.9l0,0l-6.3-3.6c-3.5-2-4.2-7.9-2-13.9    l97.5,56.3L128.2,76.5z"/>
		<polygon class="st0" points="174.4,119.1 159.1,119.1 143.9,119.1 151.5,105.9 159.1,92.8 166.7,105.9   "/>
	</g>
	<g>
		<g>
			<path class="st1" d="M31.9,158.4h-2.5v3.7h-2v-10.4h4.4c2.2,0,3.4,1.3,3.4,3.4C35.3,157.1,33.9,158.4,31.9,158.4z M29.4,153.6v3     h2.4c0.9,0,1.5-0.5,1.5-1.5c0-1.1-0.6-1.5-1.5-1.5H29.4z"/>
			<path class="st1" d="M44.1,160.1l-0.7,2.1h-2.1l3.6-10.4h2.5l3.6,10.4H49l-0.7-2.1H44.1z M46.2,154l-1.5,4.3h2.9L46.2,154z"/>
			<path class="st1" d="M63.4,158.4H61v3.7h-2v-10.4h4.4c2.2,0,3.4,1.3,3.4,3.4C66.8,157.1,65.5,158.4,63.4,158.4z M61,153.6v3h2.4     c0.9,0,1.5-0.5,1.5-1.5c0-1.1-0.6-1.5-1.5-1.5H61z"/>
			<path class="st1" d="M82.7,162.2h-7.7v-10.4h7.6v1.8h-5.6v2.2h4.8v1.8h-4.8v2.7h5.7V162.2z"/>
			<path class="st1" d="M92.9,160.3H98v1.8h-7.2v-10.4h2V160.3z"/>
			<path class="st1" d="M113.8,162.2H106v-10.4h7.6v1.8H108v2.2h4.8v1.8H108v2.7h5.7V162.2z"/>
			<path class="st1" d="M130,162.2h-2v-2.7c0-0.9-0.4-1.3-1.4-1.3h-2.7v4h-2v-10.4h4.8c2.2,0,3.6,1.2,3.6,3.1c0,1.2-0.6,2-1.5,2.4     c0.7,0.4,1.1,1.1,1.1,2.2V162.2z M126.8,156.4c0.3,0,1.5-0.1,1.5-1.4c0-0.3,0-1.4-1.6-1.4h-2.8v2.8H126.8z"/>
			<path class="st1" d="M140.8,162.2h-2v-10.4h2V162.2z M140.4,150.9H139l1.4-2.1h2.2L140.4,150.9z"/>
			<path class="st1" d="M151.5,160.1l-0.7,2.1h-2.1l3.6-10.4h2.5l3.6,10.4h-2.1l-0.7-2.1H151.5z M153.6,154l-1.5,4.3h2.9L153.6,154z     "/>
			<path class="st1" d="M173.8,154.9h-2c0-0.9-0.8-1.6-2-1.6c-1.1,0-2,0.4-2,1.2c0,0.7,0.7,1,2.3,1.3c2.5,0.5,4,1.1,4,3.2     c0,2-1.7,3.3-4.3,3.3c-2,0-4.3-1.1-4.3-3.6h2c0,1.2,1.2,1.8,2.3,1.8c1.1,0,2.3-0.4,2.3-1.4c0-0.7-0.5-1.1-2.5-1.4     c-1.9-0.4-3.9-0.9-3.9-3.2c0-1.8,1.6-3,4-3C172.6,151.5,173.8,153.2,173.8,154.9z"/>
		</g>
		<g>
			<path class="st1" d="M45.5,200.2h-18v-24.4h17.8v4.3H32.1v5.2h11.2v4.3H32.1v6.2h13.4V200.2z"/>
			<path class="st1" d="M53.4,195.9h12.1v4.3H48.8v-24.4h4.7V195.9z"/>
			<path class="st1" d="M83.8,186h11v4.3h-11v9.9h-4.6v-24.4h17.4v4.3H83.8V186z"/>
			<path class="st1" d="M117.8,200.2h-18v-24.4h17.8v4.3h-13.2v5.2h11.2v4.3h-11.2v6.2h13.4V200.2z"/>
			<path class="st1" d="M141.3,200.2h-5.6l-9.9-17.3v17.3h-4.6v-24.4h5.6l9.9,17.3v-17.3h4.7V200.2z"/>
			<path class="st1" d="M150.5,200.2h-4.6v-24.4h4.6V200.2z"/>
			<path class="st1" d="M163.5,191.7l-5.1,8.5h-5.5l7.9-12.5l-7.5-11.9h5.5l4.8,8l4.8-8h5.5l-7.5,11.9l7.8,12.5h-5.5L163.5,191.7z"/>
		</g>
	</g>
</g>
</svg>